module appliers/api-applicant

go 1.18

require (
	github.com/go-playground/validator/v10 v10.11.0
	github.com/golang-jwt/jwt v3.2.2+incompatible
	github.com/joho/godotenv v1.4.0
	github.com/labstack/echo/v4 v4.7.2
	github.com/pkg/errors v0.9.1
	github.com/sirupsen/logrus v1.8.1
	github.com/stretchr/testify v1.8.0
	golang.org/x/crypto v0.0.0-20211215153901-e495a2d5b3d3
	gorm.io/driver/mysql v1.3.4
	gorm.io/driver/postgres v1.3.7
	gorm.io/gorm v1.23.6
)

require (
	cloud.google.com/go v0.102.1 // indirect
	cloud.google.com/go/compute v1.7.0 // indirect
	cloud.google.com/go/iam v0.3.0 // indirect
	cloud.google.com/go/storage v1.23.0 // indirect
	github.com/davecgh/go-spew v1.1.1 // indirect
	github.com/go-playground/locales v0.14.0 // indirect
	github.com/go-playground/universal-translator v0.18.0 // indirect
	github.com/go-sql-driver/mysql v1.6.0 // indirect
	github.com/golang/groupcache v0.0.0-20200121045136-8c9f03a8e57e // indirect
	github.com/golang/protobuf v1.5.2 // indirect
	github.com/google/go-cmp v0.5.8 // indirect
	github.com/google/uuid v1.3.0 // indirect
	github.com/googleapis/enterprise-certificate-proxy v0.1.0 // indirect
	github.com/googleapis/gax-go/v2 v2.4.0 // indirect
	github.com/googleapis/go-type-adapters v1.0.0 // indirect
	github.com/jackc/chunkreader/v2 v2.0.1 // indirect
	github.com/jackc/pgconn v1.12.1 // indirect
	github.com/jackc/pgio v1.0.0 // indirect
	github.com/jackc/pgpassfile v1.0.0 // indirect
	github.com/jackc/pgproto3/v2 v2.3.0 // indirect
	github.com/jackc/pgservicefile v0.0.0-20200714003250-2b9c44734f2b // indirect
	github.com/jackc/pgtype v1.11.0 // indirect
	github.com/jackc/pgx/v4 v4.16.1 // indirect
	github.com/jinzhu/inflection v1.0.0 // indirect
	github.com/jinzhu/now v1.1.5 // indirect
	github.com/labstack/gommon v0.3.1 // indirect
	github.com/leodido/go-urn v1.2.1 // indirect
	github.com/mattn/go-colorable v0.1.11 // indirect
	github.com/mattn/go-isatty v0.0.14 // indirect
	github.com/pmezard/go-difflib v1.0.0 // indirect
	github.com/stretchr/objx v0.4.0 // indirect
	github.com/valyala/bytebufferpool v1.0.0 // indirect
	github.com/valyala/fasttemplate v1.2.1 // indirect
	go.opencensus.io v0.23.0 // indirect
	golang.org/x/net v0.0.0-20220617184016-355a448f1bc9 // indirect
	golang.org/x/oauth2 v0.0.0-20220608161450-d0670ef3b1eb // indirect
	golang.org/x/sys v0.0.0-20220615213510-4f61da869c0c // indirect
	golang.org/x/text v0.3.7 // indirect
	golang.org/x/time v0.0.0-20201208040808-7e3f01d25324 // indirect
	golang.org/x/xerrors v0.0.0-20220609144429-65e65417b02f // indirect
	google.golang.org/api v0.85.0 // indirect
	google.golang.org/appengine v1.6.7 // indirect
	google.golang.org/genproto v0.0.0-20220617124728-180714bec0ad // indirect
	google.golang.org/grpc v1.47.0 // indirect
	google.golang.org/protobuf v1.28.0 // indirect
	gopkg.in/yaml.v3 v3.0.1 // indirect
)
